<svg width="40" height="40" viewBox="0 0 40 40" fill="none" xmlns="http://www.w3.org/2000/svg">
<g clip-path="url(#clip0_195:2928)">
<path d="M19.9997 1.03296C30.4798 1.03296 38.9672 9.53064 38.9672 20.0004C38.9672 30.4702 30.4798 38.9679 19.9997 38.9679C9.51958 38.9679 1.03223 30.4806 1.03223 20.0004C1.03223 9.52031 9.51958 1.03296 19.9997 1.03296ZM17.0157 28.2503L30.4695 14.7862L27.4339 11.7506L17.0157 22.1687L12.5655 17.7186L9.5299 20.7542L17.0157 28.2503Z" fill="#EA4420"/>
<path d="M30.4699 14.7864L17.0161 28.2505L9.53027 20.7543L12.5659 17.7187L17.0161 22.1689L27.4342 11.7507L30.4699 14.7864Z" fill="#FDC75B"/>
<path d="M20 40.0005C31.0274 40.0005 40 31.0279 40 20.0005C40 8.97313 31.0274 0.000488281 20 0.000488281C8.97264 0.000488281 0 8.97313 0 20.0005C0 31.0279 8.97264 40.0005 20 40.0005ZM20 2.06554C29.8916 2.06554 37.935 10.1089 37.935 20.0005C37.935 29.8921 29.8916 37.9354 20 37.9354C10.1084 37.9354 2.06505 29.8921 2.06505 20.0005C2.06505 10.1089 10.1084 2.06554 20 2.06554Z" fill="black"/>
<path d="M16.2937 28.9836C16.4899 29.1798 16.748 29.283 17.0268 29.283C17.3056 29.283 17.5637 29.1695 17.7599 28.9836L31.2137 15.5195C31.6163 15.1168 31.6163 14.4663 31.2137 14.0636L28.1677 11.0177C27.9715 10.8215 27.7134 10.7183 27.4346 10.7183C27.1558 10.7183 26.8977 10.8318 26.7015 11.0177L17.0164 20.7028L13.2994 16.9857C12.8967 16.583 12.2462 16.583 11.8435 16.9857L8.80787 20.0213C8.40519 20.424 8.40519 21.0745 8.80787 21.4772L16.2937 28.9836ZM12.5663 19.1746L16.2834 22.8917C16.686 23.2944 17.3365 23.2944 17.7392 22.8917L27.4243 13.2066L29.0041 14.7864L17.0164 26.7947L10.9865 20.7647L12.5663 19.1746Z" fill="black"/>
</g>
<defs>
<clipPath id="clip0_195:2928">
<rect width="40" height="40" fill="white" transform="translate(0 0.000488281)"/>
</clipPath>
</defs>
</svg>
